dump.vcd
$date
Mon May 11 10:50:52 2026
$end
$version
Riviera-PRO Version 2025.04.139.9738
$end
$timescale
1 ns
$end

$scope module tb_top $end
$var parameter 32 ! DATA_WIDTH [31:0] $end
$var parameter 32 " ADDR_WIDTH [31:0] $end

$scope module aif $end
$var reg 1 # wr_clk $end
$var reg 1 $ wr_en $end
$var reg 1 % rst_n $end
$var reg 8 & wr_data [7:0] $end
$var reg 1 ' rd_clk $end
$var reg 1 ( rd_en $end
$var reg 1 ) full $end
$var reg 1 * empty $end
$var reg 8 + rd_data [7:0] $end
$var parameter 32 , DATA_WIDTH [31:0] $end
$upscope $end


$scope module dut $end
$var wire 1 - wr_clk $end
$var wire 1 . wr_en $end
$var wire 1 / rst_n $end
$var wire 1 0 rd_clk $end
$var wire 1 1 rd_en $end
$var wire 8 2 wr_data [7:0] $end
$var wire 1 3 full $end
$var wire 1 4 empty $end
$var reg 8 5 rd_data [7:0] $end
$var reg 5 6 wr_ptr_bin [4:0] $end
$var reg 5 7 wr_ptr_gray [4:0] $end
$var reg 5 8 rd_ptr_bin [4:0] $end
$var reg 5 9 rd_ptr_gray [4:0] $end
$var reg 5 : wr_ptr_gray_sync1 [4:0] $end
$var reg 5 ; wr_ptr_gray_sync2 [4:0] $end
$var reg 5 < rd_ptr_gray_sync1 [4:0] $end
$var reg 5 = rd_ptr_gray_sync2 [4:0] $end
$var parameter 32 > DATA_WIDTH [31:0] $end
$var parameter 32 ? ADDR_WIDTH [31:0] $end
$var parameter 32 @ DEPTH [31:0] $end
$upscope $end

$upscope $end


$scope module uvm_pkg $end
$var integer 32 A UVM_UNBOUNDED_CONNECTIONS $end
$var reg 1 B uvm_start_uvm_declarations $end
$var integer 32 C uvm_global_random_seed $end
$var parameter 32 D UVM_HDL_MAX_WIDTH [31:0] $end
$var parameter 32 E UVM_STREAMBITS [31:0] $end
$var parameter 32 F UVM_RADIX [31:0] $end
$var parameter 32 G UVM_MACRO_NUMFLAGS [31:0] $end
$var parameter 32 H UVM_DEFAULT [31:0] $end
$var parameter 32 I UVM_ALL_ON [31:0] $end
$var parameter 32 J UVM_FLAGS_ON [31:0] $end
$var parameter 32 K UVM_FLAGS_OFF [31:0] $end
$var parameter 32 L UVM_COPY [31:0] $end
$var parameter 32 M UVM_NOCOPY [31:0] $end
$var parameter 32 N UVM_COMPARE [31:0] $end
$var parameter 32 O UVM_NOCOMPARE [31:0] $end
$var parameter 32 P UVM_PRINT [31:0] $end
$var parameter 32 Q UVM_NOPRINT [31:0] $end
$var parameter 32 R UVM_RECORD [31:0] $end
$var parameter 32 S UVM_NORECORD [31:0] $end
$var parameter 32 T UVM_PACK [31:0] $end
$var parameter 32 U UVM_NOPACK [31:0] $end
$var parameter 32 V UVM_PHYSICAL [31:0] $end
$var parameter 32 W UVM_ABSTRACT [31:0] $end
$var parameter 32 X UVM_READONLY [31:0] $end
$var parameter 32 Y UVM_NODEFPRINT [31:0] $end
$var parameter 32 Z UVM_MACRO_EXTRAS [31:0] $end
$var parameter 32 [ UVM_FLAGS [31:0] $end
$var parameter 32 \ UVM_UNPACK [31:0] $end
$var parameter 32 ] UVM_CHECK_FIELDS [31:0] $end
$var parameter 32 ^ UVM_END_DATA_EXTRA [31:0] $end
$var parameter 32 _ UVM_START_FUNCS [31:0] $end
$var parameter 32 ` UVM_SET [31:0] $end
$var parameter 32 a UVM_SETINT [31:0] $end
$var parameter 32 b UVM_SETOBJ [31:0] $end
$var parameter 32 c UVM_SETSTR [31:0] $end
$var parameter 32 d UVM_END_FUNCS [31:0] $end
$var parameter 32 e UVM_STR_CRC_POLYNOMIAL [31:0] $end
$var parameter 32 f UVM_STDOUT [31:0] $end
$var parameter 32 g UVM_LOG_UVM_RM_RECORD [31:0] $end
$var parameter 32 h UVM_LINE_WIDTH [31:0] $end
$var parameter 32 i UVM_NUM_LINES [31:0] $end
$var parameter 32 j UVM_SMALL_STRING [31:0] $end
$var parameter 32 k UVM_LARGE_STRING [31:0] $end

$scope function uvm_hdl_check_path $end
$var integer 32 l uvm_hdl_check_path $end
$upscope $end


$scope function uvm_hdl_deposit $end
$var reg 1024 m value [1023:0] $end
$var integer 32 n uvm_hdl_deposit $end
$upscope $end


$scope function uvm_hdl_force $end
$var reg 1024 o value [1023:0] $end
$var integer 32 p uvm_hdl_force $end
$upscope $end


$scope task uvm_hdl_force_time $end
$var reg 1024 q value [1023:0] $end
$var time 64 r force_time $end
$upscope $end


$scope function uvm_hdl_release_and_read $end
$var reg 1024 s value [1023:0] $end
$var integer 32 t uvm_hdl_release_and_read $end
$upscope $end


$scope function uvm_hdl_release $end
$var integer 32 u uvm_hdl_release $end
$upscope $end


$scope function uvm_hdl_read $end
$var reg 1024 v value [1023:0] $end
$var integer 32 w uvm_hdl_read $end
$upscope $end


$scope function uvm_dpi_get_next_arg_c $end
$var integer 32 x init $end
$upscope $end


$scope function uvm_dpi_get_next_arg $end
$var integer 32 y init $end
$upscope $end


$scope function uvm_dpi_regcomp $end
$upscope $end


$scope function uvm_dpi_regexec $end
$var integer 32 z uvm_dpi_regexec $end
$upscope $end


$scope function uvm_dpi_regfree $end
$upscope $end


$scope function uvm_re_match $end
$var integer 32 { uvm_re_match $end
$upscope $end


$scope function uvm_radix_to_string $end
$var integer 32 | radix $end
$upscope $end


$scope function uvm_instance_scope $end
$var reg 8 } c [7:0] $end
$var integer 32 ~ pos $end
$upscope $end


$scope function uvm_oneway_hash $end
$var integer 32 !! seed $end
$var integer 32 "! uvm_oneway_hash $end
$var reg 1 #! msb $end
$var reg 8 $! current_byte [7:0] $end
$var reg 32 %! crc1 [31:0] $end
$upscope $end


$scope function uvm_create_random_seed $end
$var integer 32 &! uvm_create_random_seed $end
$upscope $end


$scope function uvm_leaf_scope $end
$var reg 8 '! scope_separator [7:0] $end
$var reg 8 (! bracket_match [7:0] $end
$var integer 32 )! pos $end
$var integer 32 *! bmatches $end
$upscope $end


$scope function get_radix_string_global $end
$var integer 32 +! radix $end
$upscope $end


$scope function uvm_bitstream_to_string $end
$var reg 4096 ,! value [4095:0] $end
$var integer 32 -! size $end
$var integer 32 .! radix $end

$scope begin 13unnblk $end
$var reg 4096 /! _t [4095:0] $end
$upscope $end

$upscope $end


$scope function uvm_integral_to_string $end
$var reg 64 0! value [63:0] $end
$var integer 32 1! size $end
$var integer 32 2! radix $end

$scope begin 15unnblk $end
$var reg 64 3! _t [63:0] $end
$upscope $end

$upscope $end


$scope function uvm_vector_to_string $end
$var reg 4096 4! value [4095:0] $end
$var integer 32 5! size $end
$var integer 32 6! radix $end
$upscope $end


$scope function uvm_get_array_index_int $end
$var reg 1 7! is_wildcard $end
$var integer 32 8! uvm_get_array_index_int $end
$var integer 32 9! i $end
$upscope $end


$scope function uvm_get_array_index_string $end
$var reg 1 :! is_wildcard $end
$var integer 32 ;! i $end
$upscope $end


$scope function uvm_is_array $end
$var reg 1 <! uvm_is_array $end
$upscope $end


$scope function set_global_timeout $end
$var time 64 =! timeout $end
$var reg 1 >! overridable $end
$upscope $end


$scope function set_global_stop_timeout $end
$var time 64 ?! timeout $end
$upscope $end


$scope function uvm_report_enabled $end
$var integer 32 @! verbosity $end
$var reg 2 A! severity $end
$var integer 32 B! uvm_report_enabled $end
$upscope $end


$scope function uvm_report $end
$var reg 2 C! severity $end
$var integer 32 D! verbosity $end
$var integer 32 E! line $end
$var reg 1 F! report_enabled_checked $end
$upscope $end


$scope function m__uvm_report_dpi $end
$var integer 32 G! severity $end
$var integer 32 H! verbosity $end
$var integer 32 I! line $end
$upscope $end


$scope function uvm_report_info $end
$var integer 32 J! verbosity $end
$var integer 32 K! line $end
$var reg 1 L! report_enabled_checked $end
$upscope $end


$scope function uvm_report_warning $end
$var integer 32 M! verbosity $end
$var integer 32 N! line $end
$var reg 1 O! report_enabled_checked $end
$upscope $end


$scope function uvm_report_error $end
$var integer 32 P! verbosity $end
$var integer 32 Q! line $end
$var reg 1 R! report_enabled_checked $end
$upscope $end


$scope function uvm_report_fatal $end
$var integer 32 S! verbosity $end
$var integer 32 T! line $end
$var reg 1 U! report_enabled_checked $end
$upscope $end


$scope function uvm_string_to_severity $end
$var reg 2 V! sev $end
$var reg 1 W! uvm_string_to_severity $end
$upscope $end


$scope function set_config_int $end
$var reg 4096 X! value [4095:0] $end
$upscope $end


$scope function set_config_object $end
$var reg 1 Y! clone $end
$upscope $end


$scope function uvm_is_match $end
$var reg 1 Z! uvm_is_match $end
$upscope $end


$scope function uvm_string_to_bits $end
$var reg 115200 [! uvm_string_to_bits [115199:0] $end
$upscope $end


$scope function uvm_bits_to_string $end
$var reg 115200 \! str [115199:0] $end
$upscope $end


$scope task uvm_wait_for_nba_region $end
$var integer 32 ]! nba $end
$var integer 32 ^! next_nba $end
$upscope $end

$upscope $end


$scope module std $end

$scope function randomize $end
$var reg 1 _! randomize $end
$upscope $end

$upscope $end

$enddefinitions $end
$dumpvars
b1000 !
b100 "
0#
0$
0%
b0 &
0'
0(
0)
1*
b0 +
b1000 ,
0-
0.
0/
00
01
b0 2
03
14
b0 5
b0 6
b0 7
b0 8
b0 9
b0 :
b0 ;
b0 <
b0 =
b1000 >
b100 ?
b10000 @
b11111111111111111111111111111111 A
1B
b1000011111110111011111100011111 C
b10000000000 D
b1000000000000 E
b1111000000000000000000000000 F
b10001 G
b10101010101 H
b101010101 I
b101010101 J
b0 K
b1 L
b10 M
b100 N
b1000 O
b10000 P
b100000 Q
b1000000 R
b10000000 S
b100000000 T
b1000000000 U
b10000000000000 V
b100000000000000 W
b1000000000000000 X
b10000000000000000 Y
b100000000000000000 Z
b100000000000000001 [
b100000000000000010 \
b100000000000000011 ]
b100000000000000100 ^
b100000000000000101 _
b100000000000000110 `
b100000000000000110 a
b100000000000000111 b
b100000000000001000 c
b100000000000001000 d
b100110000010001110110110110 e
b1 f
b1000010 g
b1111000 h
b1111000 i
b1110111111 j
b11100000111111111 k
b0 l
bx m
b0 n
bx o
b0 p
bx q
bx r
bx s
b0 t
b0 u
bx v
b0 w
b0 x
b0 y
b0 z
b0 {
b0 |
b111010 }
b1000 ~
b1000011111110111011111100011111 !!
b11000001000010000110110110 "!
0#!
b1010010 $!
b1101000100111011111011101000000 %!
b11010101101100111010100000101010 &!
b0 '!
b0 (!
b0 )!
b0 *!
b0 +!
bx ,!
b0 -!
b0 .!
bx /!
bx 0!
b0 1!
b0 2!
bx 3!
bx 4!
b0 5!
b0 6!
07!
b0 8!
b0 9!
0:!
b0 ;!
0<!
bx =!
0>!
bx ?!
b111110100 @!
b0 A!
b0 B!
b0 C!
b0 D!
b0 E!
0F!
b0 G!
b0 H!
b0 I!
b0 J!
b0 K!
0L!
b0 M!
b0 N!
0O!
b0 P!
b0 Q!
0R!
b0 S!
b0 T!
0U!
b0 V!
0W!
bx X!
0Y!
0Z!
bx [!
bx \!
b100011 ]!
b100011 ^!
0_!
$end
#5
1#
1-
#7
1'
10
#10
1%
b1100100 @!
b1 B!
b1100100 J!
b1000101011 K!
1L!
0#
0-
1/
b100100 ^!
b100100 ]!
#14
0'
00
#15
1#
1-
#20
0#
0-
1$
b1111110 &
b1111110 2
1.
#21
1'
10
#25
1#
1-
b1 6
b1 7
#28
0'
00
#30
0#
0-
b100101 ^!
b11000001000010000110110111 &!
0$
b100101 ]!
0.
#35
1'
1#
1-
10
b1 :
#40
0#
0-
1$
b10111010 &
b10111010 2
1.
#42
0'
00
#45
1#
1-
b10 6
b11 7
#49
1'
10
b11 :
b1 ;
04
0*
#50
0#
0-
0$
0.
#55
1#
1-
#56
0'
b100110 ^!
00
b11000001000010000110111001 &!
b100110 ]!
#60
0#
0-
1$
b1110001 &
b1110001 2
1.
#63
1'
10
b11 ;
#65
1#
1-
b11 6
b10 7
#70
0'
0#
0-
00
0$
0.
#75
1#
1-
#77
1'
10
b10 :
#80
0#
0-
#84
0'
00
b100111 ^!
b11000001000010000110111100 &!
b100111 ]!
#85
1#
1-
#90
0#
0-
1$
b1110101 &
b1110101 2
1.
#91
1'
10
b10 ;
#95
1#
1-
b100 6
b110 7
#98
0'
00
#100
0#
0-
0$
0.
#105
1'
1#
1-
10
b110 :
#110
0#
0-
#112
0'
00
b101000 ^!
b11000001000010000111000000 &!
b101000 ]!
#115
1#
1-
#119
1'
10
b110 ;
#120
0#
0-
1$
b10011000 &
b10011000 2
1.
#125
1#
1-
b101 6
b111 7
#126
0'
00
#130
0#
0-
0$
0.
#133
1'
10
b111 :
#135
1#
1-
#140
0'
0#
0-
00
b101001 ^!
b11000001000010000111000101 &!
b101001 ]!
#145
1#
1-
#147
1'
10
b111 ;
#150
0#
0-
1$
b1101010 &
b1101010 2
1.
#154
0'
00
#155
1#
1-
b110 6
b101 7
#160
0#
0-
0$
0.
#161
1'
10
b101 :
#165
1#
1-
#168
0'
00
b101010 ^!
b11000001000010000111001011 &!
b101010 ]!
#170
0#
0-
1$
b1101001 &
b1101001 2
1.
#175
1'
1#
1-
10
b111 6
b100 7
b101 ;
#180
0#
0-
0$
0.
#182
0'
00
#185
1#
1-
#189
1'
10
b100 :
#190
0#
0-
#195
1#
1-
#196
0'
b101011 ^!
00
b11000001000010000111010010 &!
b101011 ]!
#200
0#
0-
1$
b11000010 &
b11000010 2
1.
#203
1'
10
b100 ;
#205
1#
1-
b1000 6
b1100 7
#210
0'
0#
0-
00
0$
0.
#215
1#
1-
#217
1'
10
b1100 :
#220
0#
0-
#224
0'
00
b101100 ^!
b11000001000010000111011010 &!
b101100 ]!
#225
1#
1-
#230
0#
0-
1$
b11000111 &
b11000111 2
1.
#231
1'
10
b1100 ;
#235
1#
1-
b1001 6
b1101 7
#238
0'
00
#240
0#
0-
0$
0.
#245
1'
1#
1-
10
b1101 :
#250
0#
0-
#252
0'
00
b101101 ^!
b11000001000010000111100011 &!
b101101 ]!
#255
1#
1-
#259
1'
10
b1101 ;
#260
0#
0-
1$
b11000110 &
b11000110 2
1.
#265
1#
1-
b1010 6
b1111 7
#266
0'
00
#270
0#
0-
0$
0.
#273
1'
10
b1111 :
#275
1#
1-
#280
0'
0#
0-
00
b101110 ^!
b11000001000010000111101101 &!
b101110 ]!
#285
1#
1-
#287
1'
10
b1111 ;
#290
0#
0-
1$
b10010000 &
b10010000 2
1.
#294
0'
00
#295
1#
1-
b1011 6
b1110 7
#300
0#
0-
0$
0.
#301
1'
10
b1110 :
#305
1#
1-
#308
0'
00
b101111 ^!
b11000001000010000111111000 &!
b101111 ]!
#310
0#
0-
1$
b10110100 &
b10110100 2
1.
#315
1'
1#
1-
10
b1100 6
b1010 7
b1110 ;
#320
0#
0-
0$
0.
#322
0'
00
#325
1#
1-
#329
1'
10
b1010 :
#330
0#
0-
#335
1#
1-
#336
0'
b110000 ^!
00
b11000001000010001000000100 &!
b110000 ]!
#340
0#
0-
1$
b1101001 &
b1101001 2
1.
#343
1'
10
b1010 ;
#345
1#
1-
b1101 6
b1011 7
#350
0'
0#
0-
00
0$
0.
#355
1#
1-
#357
1'
10
b1011 :
#360
0#
0-
#364
0'
00
b110001 ^!
b11000001000010001000010001 &!
b110001 ]!
#365
1#
1-
#370
0#
0-
1$
b10100011 &
b10100011 2
1.
#371
1'
10
b1011 ;
#375
1#
1-
b1110 6
b1001 7
#378
0'
00
#380
0#
0-
0$
0.
#385
1'
1#
1-
10
b1001 :
#390
0#
0-
#392
0'
00
b110010 ^!
b11000001000010001000011111 &!
b110010 ]!
#395
1#
1-
#399
1'
10
b1001 ;
#400
0#
0-
1$
b1111111 &
b1111111 2
1.
#405
1#
1-
b1111 6
b1000 7
#406
0'
00
#410
0#
0-
0$
0.
#413
1'
10
b1000 :
#415
1#
1-
#420
0'
0#
0-
00
b110011 ^!
b11000001000010001000101110 &!
b110011 ]!
#425
1#
1-
#427
1'
10
b1000 ;
#430
0#
0-
1$
b10011001 &
b10011001 2
1.
#434
0'
00
#435
1#
1-
b10000 6
b11000 7
13
1)
#440
0#
0-
0$
0.
#441
1'
10
b11000 :
#445
1#
1-
#448
0'
00
b110100 ^!
b110100 ]!
#450
0#
0-
#455
1'
1#
1-
10
b11000 ;
#458
b1110100010100110000010100110001 "!
b11101101101110011010100011001111 %!
b110011 $!
1#!
b1110100010100110000010100110001 &!
b11100110001100010100001101010000 "!
b11001110011110111100101001011101 %!
b1010010 $!
1#!
b11100110001100010100001101010000 &!
b110101 ^!
b110101 ]!
#460
0#
0-
b0 &
b0 2
#462
0'
00
1(
11
#465
1#
1-
#469
1'
10
b1111110 5
b1 8
b1 9
b1111110 +
#470
0#
0-
#475
1#
1-
b1 <
#476
0'
b110110 ^!
00
b11100110001100010100001101010001 &!
0(
b110110 ]!
01
#480
0#
0-
#483
1'
10
#485
1#
1-
b1 =
03
0)
#490
0'
0#
0-
00
1(
11
#495
1#
1-
#497
1'
10
b10111010 5
b10 8
b11 9
b10111010 +
#500
0#
0-
#504
0'
00
b110111 ^!
b11100110001100010100001101010011 &!
0(
b110111 ]!
01
#505
1#
1-
b11 <
#510
0#
0-
#511
1'
10
#515
1#
1-
b11 =
#518
0'
00
1(
11
#520
0#
0-
#525
1'
1#
1-
10
b1110001 5
b11 8
b10 9
b1110001 +
#530
0#
0-
#532
0'
00
b111000 ^!
b11100110001100010100001101010110 &!
0(
b111000 ]!
01
#535
1#
1-
b10 <
#539
1'
10
#540
0#
0-
#545
1#
1-
b10 =
#546
0'
00
1(
11
#550
0#
0-
#553
1'
10
b1110101 5
b100 8
b110 9
b1110101 +
#555
1#
1-
b110 <
#560
0'
0#
0-
00
b111001 ^!
b11100110001100010100001101011010 &!
0(
b111001 ]!
01
#565
1#
1-
b110 =
#567
1'
10
#570
0#
0-
#574
0'
00
1(
11
#575
1#
1-
#580
0#
0-
#581
1'
10
b10011000 5
b101 8
b111 9
b10011000 +
#585
1#
1-
b111 <
#588
0'
00
b111010 ^!
b11100110001100010100001101011111 &!
0(
b111010 ]!
01
#590
0#
0-
#595
1'
1#
1-
10
b111 =
#600
0#
0-
#602
0'
00
1(
11
#605
1#
1-
#609
1'
10
b1101010 5
b110 8
b101 9
b1101010 +
#610
0#
0-
#615
1#
1-
b101 <
#616
0'
b111011 ^!
00
b11100110001100010100001101100101 &!
0(
b111011 ]!
01
#620
0#
0-
#623
1'
10
#625
1#
1-
b101 =
#630
0'
0#
0-
00
1(
11
#635
1#
1-
#637
1'
10
b1101001 5
b111 8
b100 9
b1101001 +
#640
0#
0-
#644
0'
00
b111100 ^!
b11100110001100010100001101101100 &!
0(
b111100 ]!
01
#645
1#
1-
b100 <
#650
0#
0-
#651
1'
10
#655
1#
1-
b100 =
#658
0'
00
1(
11
#660
0#
0-
#665
1'
1#
1-
10
b11000010 5
b1000 8
b1100 9
b11000010 +
#670
0#
0-
#672
0'
00
b111101 ^!
b11100110001100010100001101110100 &!
0(
b111101 ]!
01
#675
1#
1-
b1100 <
#679
1'
10
#680
0#
0-
#685
1#
1-
b1100 =
#686
0'
00
1(
11
#690
0#
0-
#693
1'
10
b11000111 5
b1001 8
b1101 9
b11000111 +
#695
1#
1-
b1101 <
#700
0'
0#
0-
00
b111110 ^!
b11100110001100010100001101111101 &!
0(
b111110 ]!
01
#705
1#
1-
b1101 =
#707
1'
10
#710
0#
0-
#714
0'
00
1(
11
#715
1#
1-
#720
0#
0-
#721
1'
10
b11000110 5
b1010 8
b1111 9
b11000110 +
#725
1#
1-
b1111 <
#728
0'
00
b111111 ^!
b11100110001100010100001110000111 &!
0(
b111111 ]!
01
#730
0#
0-
#735
1'
1#
1-
10
b1111 =
#740
0#
0-
#742
0'
00
1(
11
#745
1#
1-
#749
1'
10
b10010000 5
b1011 8
b1110 9
b10010000 +
#750
0#
0-
#755
1#
1-
b1110 <
#756
0'
b1000000 ^!
00
b11100110001100010100001110010010 &!
0(
b1000000 ]!
01
#760
0#
0-
#763
1'
10
#765
1#
1-
b1110 =
#770
0'
0#
0-
00
1(
11
#775
1#
1-
#777
1'
10
b10110100 5
b1100 8
b1010 9
b10110100 +
#780
0#
0-
#784
0'
00
b1000001 ^!
b11100110001100010100001110011110 &!
0(
b1000001 ]!
01
#785
1#
1-
b1010 <
#790
0#
0-
#791
1'
10
#795
1#
1-
b1010 =
#798
0'
00
1(
11
#800
0#
0-
#805
1'
1#
1-
10
b1101001 5
b1101 8
b1011 9
b1101001 +
#810
0#
0-
#812
0'
00
b1000010 ^!
b11100110001100010100001110101011 &!
0(
b1000010 ]!
01
#815
1#
1-
b1011 <
#819
1'
10
#820
0#
0-
#825
1#
1-
b1011 =
#826
0'
00
1(
11
#830
0#
0-
#833
1'
10
b10100011 5
b1110 8
b1001 9
b10100011 +
#835
1#
1-
b1001 <
#840
0'
0#
0-
00
b1000011 ^!
b11100110001100010100001110111001 &!
0(
b1000011 ]!
01
#845
1#
1-
b1001 =
#847
1'
10
#850
0#
0-
#854
0'
00
1(
11
#855
1#
1-
#860
0#
0-
#861
1'
10
b1111111 5
b1111 8
b1000 9
b1111111 +
#865
1#
1-
b1000 <
#868
0'
00
b1000100 ^!
b11100110001100010100001111001000 &!
0(
b1000100 ]!
01
#870
0#
0-
#875
1'
1#
1-
10
b1000 =
#880
0#
0-
#882
0'
00
1(
11
#885
1#
1-
#889
1'
10
b10011001 5
b10000 8
b11000 9
b10011001 +
14
1*
#890
0#
0-
#895
1#
1-
b11000 <
#896
0'
b1000101 ^!
00
0(
b1000101 ]!
01
#900
0#
0-
#903
1'
10
#905
1#
1-
b11000 =
#910
0'
0#
0-
00
#915
1#
1-
#917
1'
10
#920
0#
0-
#924
0'
00
#925
1#
1-
#930
0#
0-
#931
1'
10
#935
1#
1-
#938
0'
00
#940
0#
0-
#945
1'
1#
1-
10
#950
0#
0-
#952
0'
00
#955
1#
1-
#959
1'
10
#960
0#
0-
#965
1#
1-
#966
0'
00
#970
0#
0-
#973
1'
10
#975
1#
1-
#980
0'
0#
0-
00
#985
1#
1-
#987
1'
10
#990
0#
0-
#994
0'
00
#995
1#
1-
#1000
0#
0-
#1001
1'
10
#1005
1#
1-
#1008
0'
00
#1010
0#
0-
#1015
1'
1#
1-
10
#1020
0#
0-
#1022
0'
00
#1025
1#
1-
#1029
1'
10
b111110100 @!
b0 B!
b1000111 ^!
b1000111 ]!
b1001001 ^!
b1001001 ]!
b11111100100111010100010111001010 &!
b11111100100111010100010111011100 &!
b11111100100111010100010111101111 &!
b11010011110011000001110011011 &!
b1100100 @!
b1 B!
b1101100101 K!
